…
</div>

This method will print out the attributes if they exist. [`NextMethod()`](https://rdrr.io/r/base/UseMethod.html) will then make R go down the class chain, until it prints like a regular tibble. This is great for debugging. The response of the API call is (more or less) determined by the three attributes I specifically print. So it makes life much easier for me to be able relate the parsed tibble to the API response.

    > flinders_departures
    Request: http://timetableapi.ptv.vic.gov.au/v3/departures/route_type/0/stop/1071?max_results=5&date_utc=2020-05-18T12:14:10&include_cancelled=false 
    Retrieved: 2020-05-18 22:14:11 AEST 
    Status code: 200 
    # A tibble: 75 x 11
       direction_id stop_id route_id run_id platform_number at_platform departure_seque…
              <int>   <int>    <int>  <int> <chr>           <lgl>                  <int>
     1            5    1071        6 952531 9               FALSE                      0
     2            2    1071        3 953881 5               FALSE                      0
     3           13    1071       14 954655 4               FALSE                      0
     4            6    1071        7 950675 2               FALSE                      0
     5            9    1071        5 949763 1               FALSE                      0
     6           16    1071       17 954539 9               FALSE                      0
     7           11    1071       12 988175 13              FALSE                      0
     8           10    1071       11 952689 6               FALSE                      0
     9            8    1071        9 951849 3               FALSE                      0
    10           14    1071       15 953653 4               FALSE                      0
    # … with 65 more rows, and 4 more variables: scheduled_departure <dttm>,
    #   estimated_departure <dttm>, flags <chr>, disruption_ids <list>
…
